[gd_scene load_steps=4 format=2]

[ext_resource path="res://assets/images/main_menu_text.png" type="Texture" id=1]
[ext_resource path="res://objects/buttons/change_scene_button.gd" type="Script" id=2]
[ext_resource path="res://objects/buttons/button_sound.tscn" type="PackedScene" id=3]

[node name="MainMenu" type="TextureButton"]
margin_right = 443.5
margin_bottom = 93.125
rect_min_size = Vector2( 443.5, 93.125 )
mouse_default_cursor_shape = 2
texture_normal = ExtResource( 1 )
expand = true
script = ExtResource( 2 )

[node name="ButtonSound" parent="." instance=ExtResource( 3 )]
