[gd_scene load_steps=3 format=2]

[ext_resource path="res://assets/images/send_text.png" type="Texture" id=1]
[ext_resource path="res://objects/buttons/button_sound.tscn" type="PackedScene" id=2]

[node name="Send" type="TextureButton"]
margin_right = 190.25
margin_bottom = 92.375
rect_min_size = Vector2( 190.25, 92.375 )
mouse_default_cursor_shape = 2
texture_normal = ExtResource( 1 )
expand = true

[node name="ButtonSound" parent="." instance=ExtResource( 2 )]
