[gd_scene load_steps=3 format=2]

[ext_resource path="res://objects/environments/rotating_platforms/rotating_platform.gd" type="Script" id=1]
[ext_resource path="res://assets/images/wide_rotating_platform.png" type="Texture" id=2]



[node name="WideRotatingPlatform" type="StaticBody2D"]
script = ExtResource( 1 )
rotation_interval = 2.0

[node name="CollisionPolygon2D" type="CollisionPolygon2D" parent="."]
polygon = PoolVector2Array( 192, 16, -192, 16, -192, -16, 192, -16 )

[node name="Sprite" type="Sprite" parent="."]
modulate = Color( 0.741176, 0.2, 0.643137, 1 )
texture = ExtResource( 2 )
