[gd_resource type="DynamicFont" load_steps=2 format=2]

[ext_resource path="res://assets/fonts/SFCompactDisplay-Regular.otf" type="DynamicFontData" id=1]

[resource]
size = 24
font_data = ExtResource( 1 )
