[gd_scene load_steps=3 format=2]

[ext_resource path="res://objects/environments/spikes/spike.gd" type="Script" id=1]
[ext_resource path="res://assets/images/narrow_spike.png" type="Texture" id=2]

[node name="NarrowSpike" type="StaticBody2D"]

[node name="Area2D" type="Area2D" parent="."]
input_pickable = false
script = ExtResource( 1 )

[node name="CollisionPolygon2D" type="CollisionPolygon2D" parent="Area2D"]
position = Vector2( -1.02699, 2.25937 )
polygon = PoolVector2Array( 5, -31.4, 5, -28.5, 32, 23.5, 32, 32, -32, 32, -32, 25.5, -4, -31.5, 3.5, -32 )

[node name="CollisionPolygon2D" type="CollisionPolygon2D" parent="."]
position = Vector2( -1.02699, 2.25937 )
scale = Vector2( 0.9, 0.9 )
polygon = PoolVector2Array( 5, -31.4, 5, -28.5, 32, 23.5, 32, 32, -32, 32, -32, 25.5, -4, -31.5, 3.5, -32 )

[node name="Sprite" type="Sprite" parent="."]
modulate = Color( 0.890196, 0, 0.133333, 1 )
position = Vector2( -1.02699, 2.25937 )
texture = ExtResource( 2 )
[connection signal="body_entered" from="Area2D" to="Area2D" method="_on_Area2D_body_entered"]
