[gd_scene load_steps=12 format=2]

[ext_resource path="res://objects/stages/stage.gd" type="Script" id=1]
[ext_resource path="res://objects/camera/camera.tscn" type="PackedScene" id=2]
[ext_resource path="res://objects/environments/spikes/wide_spike.tscn" type="PackedScene" id=3]
[ext_resource path="res://assets/images/background.png" type="Texture" id=4]
[ext_resource path="res://objects/player/player.tscn" type="PackedScene" id=5]
[ext_resource path="res://resources/tile_sets/basic/basic.tres" type="TileSet" id=6]
[ext_resource path="res://objects/stages/lighting.tscn" type="PackedScene" id=7]
[ext_resource path="res://objects/stages/Music.tscn" type="PackedScene" id=8]
[ext_resource path="res://assets/sounds/LFZ - Echoes [NCS Release].ogg" type="AudioStream" id=9]
[ext_resource path="res://objects/interfaces/current_stage_status.tscn" type="PackedScene" id=10]
[ext_resource path="res://objects/animations/fade_in.tscn" type="PackedScene" id=11]

[node name="Stage4" type="Node2D"]
script = ExtResource( 1 )
stage_number = 4
current_stage_status_path = NodePath("CanvasLayer/CurrentStageStatus")
stage_name = "The Uncompletable"

[node name="Camera" parent="." instance=ExtResource( 2 )]
fade_in_path = NodePath("../CanvasLayer/FadeIn")
target_path = NodePath("../Player")

[node name="Environments" type="Node2D" parent="."]

[node name="WideSpike" parent="Environments" instance=ExtResource( 3 )]
position = Vector2( 0, 288 )

[node name="ParallaxBackground" type="ParallaxBackground" parent="."]
editor/display_folded = true

[node name="ParallaxLayer" type="ParallaxLayer" parent="ParallaxBackground"]
editor/display_folded = true
motion_mirroring = Vector2( 3840, 2160 )

[node name="Sprite" type="Sprite" parent="ParallaxBackground/ParallaxLayer"]
modulate = Color( 0, 0, 0, 1 )
scale = Vector2( 2, 2 )
texture = ExtResource( 4 )
centered = false

[node name="Player" parent="." instance=ExtResource( 5 )]

[node name="Tile Sets" type="Node2D" parent="."]

[node name="TileMap" type="TileMap" parent="Tile Sets"]
tile_set = ExtResource( 6 )
format = 1
tile_data = PoolIntArray( -262153, 0, 7, -262152, 0, 196612, -262151, 0, 196612, -262150, 0, 196612, -262149, 0, 196612, -262148, 0, 196612, -262147, 0, 196612, -262146, 0, 196612, -262145, 0, 196612, -327680, 0, 196612, -327679, 0, 196612, -327678, 0, 196612, -327677, 0, 196612, -327676, 0, 196612, -327675, 0, 196612, -327674, 0, 196612, -327673, 0, 196612, -327672, 0, 8, -196617, 0, 131076, -196616, 0, 131078, -196615, 0, 131078, -196614, 0, 131078, -196613, 0, 131078, -196612, 0, 131078, -196611, 0, 131078, -196610, 0, 131078, -196609, 0, 131078, -262144, 0, 131078, -262143, 0, 131078, -262142, 0, 131078, -262141, 0, 131078, -262140, 0, 131078, -262139, 0, 131078, -262138, 0, 131078, -262137, 0, 131078, -262136, 0, 131077, -131081, 0, 131076, -131080, 0, 131078, -131079, 0, 131078, -131078, 0, 131078, -131077, 0, 131078, -131076, 0, 131078, -131075, 0, 131078, -131074, 0, 131078, -131073, 0, 131078, -196608, 0, 131078, -196607, 0, 131078, -196606, 0, 131078, -196605, 0, 131078, -196604, 0, 131078, -196603, 0, 131078, -196602, 0, 131078, -196601, 0, 131078, -196600, 0, 131077, -65545, 0, 131076, -65544, 0, 131078, -65543, 0, 131078, -65542, 0, 131078, -65541, 0, 131078, -65540, 0, 131078, -65539, 0, 131078, -65538, 0, 131072, -65537, 0, 196613, -131072, 0, 196613, -131071, 0, 131073, -131070, 0, 131078, -131069, 0, 131078, -131068, 0, 131078, -131067, 0, 131078, -131066, 0, 131078, -131065, 0, 131078, -131064, 0, 131077, -9, 0, 131076, -8, 0, 131078, -7, 0, 131078, -6, 0, 131078, -5, 0, 131078, -4, 0, 131078, -3, 0, 131078, -2, 0, 131077, -65535, 0, 131076, -65534, 0, 131078, -65533, 0, 131078, -65532, 0, 131078, -65531, 0, 131078, -65530, 0, 131078, -65529, 0, 131078, -65528, 0, 131077, 65527, 0, 131076, 65528, 0, 131078, 65529, 0, 131078, 65530, 0, 131078, 65531, 0, 131078, 65532, 0, 131078, 65533, 0, 131078, 65534, 0, 131077, 1, 0, 131076, 2, 0, 131078, 3, 0, 131078, 4, 0, 131078, 5, 0, 131078, 6, 0, 131078, 7, 0, 131078, 8, 0, 131077, 131063, 0, 131076, 131064, 0, 131078, 131065, 0, 131078, 131066, 0, 131078, 131067, 0, 131078, 131068, 0, 131078, 131069, 0, 131078, 131070, 0, 131077, 65537, 0, 131076, 65538, 0, 131078, 65539, 0, 131078, 65540, 0, 131078, 65541, 0, 131078, 65542, 0, 131078, 65543, 0, 131078, 65544, 0, 131077, 196599, 0, 131076, 196600, 0, 131078, 196601, 0, 131078, 196602, 0, 131078, 196603, 0, 131078, 196604, 0, 131078, 196605, 0, 131078, 196606, 0, 131077, 131073, 0, 131076, 131074, 0, 131078, 131075, 0, 131078, 131076, 0, 131078, 131077, 0, 131078, 131078, 0, 131078, 131079, 0, 131078, 131080, 0, 131077, 262135, 0, 131076, 262136, 0, 131078, 262137, 0, 131078, 262138, 0, 131078, 262139, 0, 131078, 262140, 0, 131078, 262141, 0, 131078, 262142, 0, 131077, 196609, 0, 131076, 196610, 0, 131078, 196611, 0, 131078, 196612, 0, 131078, 196613, 0, 131078, 196614, 0, 131078, 196615, 0, 131078, 196616, 0, 131077, 327671, 0, 131076, 327672, 0, 131078, 327673, 0, 131078, 327674, 0, 131078, 327675, 0, 131078, 327676, 0, 131078, 327677, 0, 131078, 327678, 0, 131077, 262145, 0, 131076, 262146, 0, 131078, 262147, 0, 131078, 262148, 0, 131078, 262149, 0, 131078, 262150, 0, 131078, 262151, 0, 131078, 262152, 0, 131077, 393207, 0, 131076, 393208, 0, 131078, 393209, 0, 131078, 393210, 0, 131078, 393211, 0, 131078, 393212, 0, 131078, 393213, 0, 131078, 393214, 0, 196608, 393215, 0, 196612, 327680, 0, 196612, 327681, 0, 196609, 327682, 0, 131078, 327683, 0, 131078, 327684, 0, 131078, 327685, 0, 131078, 327686, 0, 131078, 327687, 0, 131078, 327688, 0, 131077, 458743, 0, 131076, 458744, 0, 131078, 458745, 0, 131078, 458746, 0, 131078, 458747, 0, 131078, 458748, 0, 131078, 458749, 0, 131078, 458750, 0, 131078, 458751, 0, 131078, 393216, 0, 131078, 393217, 0, 131078, 393218, 0, 131078, 393219, 0, 131078, 393220, 0, 131078, 393221, 0, 131078, 393222, 0, 131078, 393223, 0, 131078, 393224, 0, 131077, 524279, 0, 131076, 524280, 0, 131078, 524281, 0, 131078, 524282, 0, 131078, 524283, 0, 131078, 524284, 0, 131078, 524285, 0, 131078, 524286, 0, 131078, 524287, 0, 131078, 458752, 0, 131078, 458753, 0, 131078, 458754, 0, 131078, 458755, 0, 131078, 458756, 0, 131078, 458757, 0, 131078, 458758, 0, 131078, 458759, 0, 131078, 458760, 0, 131077, 589815, 0, 65543, 589816, 0, 196613, 589817, 0, 196613, 589818, 0, 196613, 589819, 0, 196613, 589820, 0, 196613, 589821, 0, 196613, 589822, 0, 196613, 589823, 0, 196613, 524288, 0, 196613, 524289, 0, 196613, 524290, 0, 196613, 524291, 0, 196613, 524292, 0, 196613, 524293, 0, 196613, 524294, 0, 196613, 524295, 0, 196613, 524296, 0, 65544 )

[node name="Triggers" type="Node2D" parent="."]

[node name="Lighting" parent="." instance=ExtResource( 7 )]

[node name="Music" parent="." instance=ExtResource( 8 )]
stream = ExtResource( 9 )

[node name="CanvasLayer" type="CanvasLayer" parent="."]

[node name="CurrentStageStatus" parent="CanvasLayer" instance=ExtResource( 10 )]

[node name="FadeIn" parent="CanvasLayer" instance=ExtResource( 11 )]
visible = false
margin_left = -2048.0
margin_top = -1200.0
margin_right = 1024.0
margin_bottom = 600.0
[connection signal="died" from="Player" to="Camera" method="_on_Player_died"]
[connection signal="teleport" from="Player" to="Camera" method="_on_Player_teleport"]
[connection signal="animation_finished" from="CanvasLayer/FadeIn" to="Camera" method="_on_FadeIn_animation_finished"]
